{
  "urn" : "local:angel.gimenez:testing.indian.data:districts_crs",
  "version" : "0.0.1",
  "adapterType" : "vector",
  "localPath" : "testing.indian.data/resources/districts_crs.v0.0.1",
  "geometry" : "#s2(664){bbox=[68.12381590511325 97.41159690775768 6.754077537551133 37.07756354144455],proj=EPSG:4326}",
  "projectName" : "testing.indian.data",
  "localName" : "districts_crs.shp",
  "type" : "OBJECT",
  "resourceTimestamp" : 1630334558164,
  "metadata" : {
    "im:keywords" : "features,districts_crs",
    "dc:title" : "districts_crs"
  },
  "parameters" : { },
  "localPaths" : [ "testing.indian.data/resources/districts_crs.v0.0.1/districts_crs.shp", "testing.indian.data/resources/districts_crs.v0.0.1/districts_crs.dbf", "testing.indian.data/resources/districts_crs.v0.0.1/districts_crs.prj", "testing.indian.data/resources/districts_crs.v0.0.1/districts_crs.shx" ],
  "history" : [ ],
  "notifications" : [ ],
  "attributes" : [ {
    "name" : "DISTRICT",
    "type" : "TEXT",
    "key" : false,
    "optional" : true,
    "exampleValue" : null,
    "index" : 0
  }, {
    "name" : "STATE",
    "type" : "TEXT",
    "key" : false,
    "optional" : true,
    "exampleValue" : null,
    "index" : 0
  }, {
    "name" : "LGD_STATE_",
    "type" : "NUMBER",
    "key" : false,
    "optional" : true,
    "exampleValue" : null,
    "index" : 0
  }, {
    "name" : "LGD_DISTRI",
    "type" : "NUMBER",
    "key" : false,
    "optional" : true,
    "exampleValue" : null,
    "index" : 0
  }, {
    "name" : "Shape_Leng",
    "type" : "NUMBER",
    "key" : false,
    "optional" : true,
    "exampleValue" : null,
    "index" : 0
  }, {
    "name" : "Shape_Area",
    "type" : "NUMBER",
    "key" : false,
    "optional" : true,
    "exampleValue" : null,
    "index" : 0
  } ],
  "spatialExtent" : {
    "east" : 97.41159690775768,
    "west" : 68.12381590511325,
    "north" : 37.07756354144455,
    "south" : 6.754077537551133,
    "gridResolution" : null,
    "gridUnit" : null
  },
  "dependencies" : null,
  "outputs" : null,
  "categorizables" : [ ],
  "exportFormats" : {
    "shp" : "ESRI shapefile"
  }
}